"sysParamOption","6/15/12 9:21 PM"
"name","label","sysParam.name","sysParam.systemType.name"
"FTP","FTP","connectionType","IDEMIAConnector"
"SFTP","SFTP","connectionType","IDEMIAConnector"
"true","Yes","isSSHAuthentication","IDEMIAConnector"
"false","No","isSSHAuthentication","IDEMIAConnector"
"true","Yes","showProvisioningWarnings","IDEMIAConnector"
"false","No","showProvisioningWarnings","IDEMIAConnector"